{
    "name": "gutebotschafter/site-<%= project %>",
    "description": "",
    "repositories": {
        "composer": {
            "type": "composer",
            "url": "https://composer.typo3.org/"
        }
    },
    "keywords": [
        "TYPO3",
        "<%= key %>"
    ],
    "require": {
        "typo3/minimal": "<%= typo3Version %>",
        "typo3/cms-adminpanel": "<%= typo3Version %>",
        "typo3/cms-belog": "<%= typo3Version %>",
        "typo3/cms-beuser": "<%= typo3Version %>",
        "typo3/cms-felogin": "<%= typo3Version %>",
        "typo3/cms-fluid-styled-content": "<%= typo3Version %>",
        "typo3/cms-form": "<%= typo3Version %>",
        "typo3/cms-impexp": "<%= typo3Version %>",
        "typo3/cms-info": "<%= typo3Version %>",
        "typo3/cms-redirects": "<%= typo3Version %>",
        "typo3/cms-reports": "<%= typo3Version %>",
        "typo3/cms-rte-ckeditor": "<%= typo3Version %>",
        "typo3/cms-setup": "<%= typo3Version %>",
        "typo3/cms-seo": "<%= typo3Version %>",
        "typo3/cms-sys-note": "<%= typo3Version %>",
        "typo3/cms-tstemplate": "<%= typo3Version %>"
    },
    "scripts":{
      "typo3-cms-scripts": [
        "typo3cms install:fixfolderstructure",
        "typo3cms install:generatepackagestates"
      ],
      "post-autoload-dump": [
        "@typo3-cms-scripts"
      ]
    },
    "autoload": {
        "psr-4": {
            "Helhum\\TYPO3\\Distribution\\": "src"
        }
    },
    "extra": {
        "helhum/typo3-console": {
            "install-extension-dummy": false
        },
        "helhum/dotenv-connector": {
            "cache-dir": "var/cache",
            "env-file": ".env"
        }
    },
    "license": "GPL-2.0+",
    "authors": [
        {
            "name": "<%= authorName %>",
            "email": "<%= authorMail %>",
            "role": "Developer",
            "homepage": "http://www.gute-botschafter.de/"
        }
    ]
}
