<svg width="34" height="34" xmlns="http://www.w3.org/2000/svg">
  <g fill="none" fill-rule="nonzero">
    <path fill="#ED4459" d="M0 0h34v34H0z"/>
    <path d="M23.358 20.081c.232.03.465.053.695.09.841.134 1.644.38 2.362.849.727.474 1.245 1.108 1.47 1.955.12.455.139.917.089 1.385-.05.472-.165.925-.383 1.349-.327.638-.827 1.108-1.449 1.456-.594.333-1.238.525-1.905.651-.709.134-1.426.182-2.145.183-2.507.002-5.013 0-7.52 0-.297 0-.278.013-.278-.27-.001-.347-.002-.693 0-1.04.001-.165.009-.166.17-.192.242-.038.483-.081.724-.126.064-.012.125-.035.187-.055.35-.11.518-.358.542-.712.01-.14.013-.281.014-.422v-1.834c0-.049-.001-.097.002-.146.007-.115.014-.12.13-.147.438-.105.881-.198 1.314-.322a8.569 8.569 0 0 0 1.938-.847c.055-.032.11-.061.192-.105.007.102.016.175.016.248v3.052c0 .222.01.442.07.659.087.31.265.524.592.606.323.08.648.147.98.155.452.01.906.026 1.352-.068.202-.042.404-.094.594-.172.503-.204.831-.578 1.014-1.083.104-.287.158-.584.18-.887.043-.58.023-1.157-.164-1.716-.253-.762-.763-1.285-1.512-1.578a4.074 4.074 0 0 0-1.24-.26c-.086-.005-.17-.018-.264-.027v-1.116l.167-.043c.215-.057.436-.097.643-.175a2.17 2.17 0 0 0 1.337-1.359c.26-.736.298-1.492.131-2.254-.127-.58-.475-.988-1.028-1.214-.7-.287-1.416-.317-2.145-.128-.063.017-.125.04-.185.064-.271.106-.438.303-.476.589-.028.208-.044.42-.044.63-.004 1.401-.001 2.802-.003 4.204 0 .325.034.262-.25.425-.972.557-2.019.911-3.117 1.12-.832.159-1.673.226-2.519.217-1.175-.013-2.322-.191-3.409-.654-2.03-.864-3.317-2.376-3.921-4.475-.262-.909-.333-1.838-.297-2.78.049-1.27.324-2.485.913-3.619C7.928 8.205 9.51 6.96 11.602 6.34c1.068-.316 2.163-.384 3.268-.316 1.072.065 2.114.273 3.104.702.506.22.979.496 1.428.814.084.06.122.126.122.229-.003 1-.001 2.002-.002 3.003 0 .047-.011.094-.018.152H18.06c-.017-.056-.038-.116-.052-.177-.151-.656-.355-1.293-.687-1.884-.287-.513-.653-.957-1.148-1.287a3.313 3.313 0 0 0-1.656-.54c-.493-.032-.98-.001-1.454.146-.751.233-1.338.688-1.8 1.311-.411.556-.683 1.18-.878 1.837-.2.677-.315 1.369-.374 2.071a14.087 14.087 0 0 0-.026 2.108c.078 1.188.278 2.35.746 3.456.232.547.527 1.056.926 1.501.52.58 1.149.979 1.928 1.105.693.113 1.38.084 2.036-.198.31-.134.307-.138.307-.464 0-1.417.002-2.835-.002-4.253 0-.204-.017-.41-.044-.613a.646.646 0 0 0-.463-.558c-.236-.076-.484-.12-.728-.172a2.165 2.165 0 0 0-.275-.036c-.088-.007-.126-.051-.124-.136l-.001-.033c0-.39-.002-.779 0-1.169.002-.155.015-.164.17-.168h.032c2.468 0 4.937-.006 7.405.003.846.003 1.685.095 2.498.349.545.17 1.055.408 1.499.772.628.514.993 1.177 1.126 1.972.089.524.091 1.045-.05 1.56-.184.678-.578 1.217-1.133 1.643-.584.448-1.25.718-1.961.889-.175.041-.351.073-.526.11.003.003.004.008.006.012z" fill="#FFF"/>
  </g>
</svg>
